…
- [**Bing**](https://www.cs.uic.edu/~liub/FBS/sentiment-analysis.html):
  Binary classification (positive/negative sentiment).
- [**AFINN**](http://www2.imm.dtu.dk/pubdb/views/publication_details.php?id=6010):
  Numeric scores for sentiment intensity.
- [**NRC**](http://saifmohammad.com/WebPages/NRC-Emotion-Lexicon.htm):
  Categorizes words into emotional dimensions (anger, joy, fear, etc.).

**Note: For AFINN you need to select 1 in your console**

``` r
get_sentiments("afinn")
```

    ## # A tibble: 2,477 × 2
    ##    word       value
    ##    <chr>      <dbl>
    ##  1 abandon       -2
    ##  2 abandoned     -2
    ##  3 abandons      -2
    ##  4 abducted      -2
    ##  5 abduction     -2
    ##  6 abductions    -2
    ##  7 abhor         -3
    ##  8 abhorred      -3
    ##  9 abhorrent     -3
    ## 10 abhors        -3
    ## # ℹ 2,467 more rows

``` r
get_sentiments("bing")
```

    ## # A tibble: 6,786 × 2
    ##    word        sentiment
    ##    <chr>       <chr>    
    ##  1 2-faces     negative 
    ##  2 abnormal    negative 
    ##  3 abolish     negative 
    ##  4 abominable  negative 
    ##  5 abominably  negative 
    ##  6 abominate   negative 
    ##  7 abomination negative 
    ##  8 abort       negative 
    ##  9 aborted     negative 
    ## 10 aborts      negative 
    ## # ℹ 6,776 more rows

``` r
get_sentiments("nrc")
```

    ## # A tibble: 13,872 × 2
    ##    word        sentiment
    ##    <chr>       <chr>    
    ##  1 abacus      trust    
    ##  2 abandon     fear     
    ##  3 abandon     negative 
    ##  4 abandon     sadness  
    ##  5 abandoned   anger    
    ##  6 abandoned   fear     
    ##  7 abandoned   negative 
    ##  8 abandoned   sadness  
    ##  9 abandonment anger    
    ## 10 abandonment fear     
    ## # ℹ 13,862 more rows
…
