…
#### Convert our movie dataframe to long

``` r
# Convert to long format
long_df <- df |> 
  pivot_longer(
    cols = China_Box_Office_Gross:Total_Worldwide_Gross,
    names_to = "Box_Office_Type",
    values_to = "Gross"
  )

print(long_df)
```

    ## # A tibble: 21 × 4
    ##    Movie_Title          Release_Date  Box_Office_Type            Gross
    ##    <chr>                <chr>         <chr>                      <dbl>
    ##  1 YOLO                 January 2024  China_Box_Office_Gross 479597304
    ##  2 YOLO                 January 2024  US_Box_Office_Gross    310000000
    ##  3 YOLO                 January 2024  Total_Worldwide_Gross  479597304
    ##  4 Successor            February 2024 China_Box_Office_Gross 469612890
    ##  5 Successor            February 2024 US_Box_Office_Gross    280000000
    ##  6 Successor            February 2024 Total_Worldwide_Gross  469612890
    ##  7 Pegasus 2            March 2024    China_Box_Office_Gross 466930272
    ##  8 Pegasus 2            March 2024    US_Box_Office_Gross    290000000
    ##  9 Pegasus 2            March 2024    Total_Worldwide_Gross  466930272
    ## 10 Deadpool & Wolverine July 2024     China_Box_Office_Gross 450000000
    ## # ℹ 11 more rows
…
