…
head(mr_words$after_mr)
```

    ## [1] "Mr. Henry"    "Mr. and"      "Mr. Henry"    "Mr. Dashwood" "Mr. Dashwood"
    ## [6] "Mr. John"

``` r
### To count

mr_words |> count(after_mr, sort = TRUE)
```

    ## # A tibble: 92 × 2
    ##    after_mr          n
    ##    <chr>         <int>
    ##  1 Mr. Darcy       254
    ##  2 Mr. Knightley   251
    ##  3 Mr. Elton       199
    ##  4 Mr. Crawford    171
    ##  5 Mr. Weston      147
    ##  6 Mr. Collins     137
    ##  7 Mr. Woodhouse   117
    ##  8 Mr. Rushworth   112
    ##  9 Mr. Bingley     100
    ## 10 Mr. Bennet       82
    ## # ℹ 82 more rows
…
